assignment4_sen_sam – Sam Sen - MUSA 5080 Portfolio
…
# Check structure
rodent_sf

Simple feature collection with 50961 features and 18 fields
Geometry type: POINT
Dimension:     XY
Bounding box:  xmin: -87.8859 ymin: 41.64704 xmax: -87.52459 ymax: 42.02253
Geodetic CRS:  WGS 84
# A tibble: 50,961 × 19
   creation_date status    completion_date service_request_number
 * <date>        <chr>     <chr>           <chr>                 
 1 2017-12-31    Completed 01/02/2018      17-08696363           
 2 2017-12-31    Completed 01/02/2018      17-08697609           
 3 2017-12-31    Completed 01/02/2018      17-08697369           
 4 2017-12-31    Completed 01/02/2018      17-08696116           
 5 2017-12-31    Completed 01/02/2018      17-08696114           
 6 2017-12-31    Completed 01/02/2018      17-08691527           
 7 2017-12-31    Completed 01/03/2018      17-08696318           
 8 2017-12-31    Completed 01/03/2018      17-08693190           
 9 2017-12-31    Completed 01/03/2018      17-08704837           
10 2017-12-31    Completed 01/02/2018      17-08699803           
# ℹ 50,951 more rows
# ℹ 15 more variables: type_of_service_request <chr>,
#   number_of_premises_baited <dbl>, number_of_premises_with_garbage <dbl>,
#   number_of_premises_with_rats <dbl>, current_activity <chr>,
#   most_recent_action <chr>, street_address <chr>, zip_code <dbl>,
#   x_coordinate <dbl>, y_coordinate <dbl>, ward <dbl>, police_district <dbl>,
#   community_area <dbl>, location <chr>, geometry <POINT [°]>
…
