Assignment 1: Census Data Quality for Policy Decisions – Sam Sen - MUSA 5080 Portfolio
…
Your Task: Select 2-3 counties from your reliability analysis for detailed tract-level study.

Strategy: Choose counties that represent different reliability levels (e.g., 1 high confidence, 1 moderate, 1 low confidence) to compare how data quality varies.

# Use filter() to select 2-3 counties from your county_reliability data
# Store the selected counties in a variable called selected_counties

# Display the selected counties with their key characteristics
# Show: county name, median income, MOE percentage, reliability category

county_reliability %>%
  dplyr::select(county, med_incomeE, income_moe_pct, reliability) %>%
  dplyr::arrange(income_moe_pct)

# A tibble: 62 × 4
   county      med_incomeE income_moe_pct reliability    
   <chr>             <dbl>          <dbl> <chr>          
 1 Queens            82431           1.06 High Confidence
 2 Suffolk          122498           1.18 High Confidence
 3 Erie              68014           1.18 High Confidence
 4 Kings             74692           1.27 High Confidence
 5 Monroe            71450           1.35 High Confidence
 6 Nassau           137709           1.39 High Confidence
 7 Westchester      114651           1.56 High Confidence
 8 Onondaga          71479           1.57 High Confidence
 9 New York          99880           1.78 High Confidence
10 Bronx             47036           1.89 High Confidence
# ℹ 52 more rows
…
