Assignment 2: Spatial Analysis and Visualization – Sam Sen - MUSA 5080 Portfolio
…
# Display results
print(county_summary)

# A tibble: 47 × 6
   NAMELSAD.y       num_vulnerable_tracts num_underserved_tracts pct_underserved
   <chr>                            <int>                  <int>           <dbl>
 1 Bradford County                      1                      1           100  
 2 Dauphin County                       1                      1           100  
 3 Forest County                        1                      1           100  
 4 Juniata County                       1                      1           100  
 5 Monroe County                        1                      1           100  
 6 Sullivan County                      1                      1           100  
 7 Wayne County                         2                      1            50  
 8 Potter County                        3                      1            33.3
 9 Crawford County                      4                      1            25  
10 Clearfield Coun…                     5                      1            20  
# ℹ 37 more rows
# ℹ 2 more variables: avg_distance_to_hospital <dbl>,
#   total_vulnerable_pop <dbl>
…
